^C:\USERS\MAGSHIMIM\DESKTOP\DLL\DLL_INJECTION\DLL_INJECTION\DEBUG\MYDLL.OBJ
C:\USERS\MAGSHIMIM\DESKTOP\DLL\DLL_INJECTION\DEBUG\DLL_INJECTION.ILK
C:\USERS\MAGSHIMIM\DESKTOP\DLL\DLL_INJECTION\DEBUG\DLL_INJECTION.DLL
C:\USERS\MAGSHIMIM\DESKTOP\DLL\DLL_INJECTION\DEBUG\DLL_INJECTION.PDB
